2016-01-09 09:05:54,788 INFO Savie.savie_views.default Redirecting from '/adfgfdgdf' to default page
2016-01-09 09:07:27,073 INFO Savie.savie_views.default Redirecting from '/test2222' to default page
2016-01-16 13:52:53,602 ERROR django.request Internal Server Error: /
Traceback (most recent call last):
  File "/Library/Frameworks/Python.framework/Versions/3.4/lib/python3.4/site-packages/django/contrib/sessions/backends/base.py", line 193, in _get_session
    return self._session_cache
AttributeError: 'SessionStore' object has no attribute '_session_cache'

During handling of the above exception, another exception occurred:

Traceback (most recent call last):
  File "/Library/Frameworks/Python.framework/Versions/3.4/lib/python3.4/site-packages/django/core/handlers/base.py", line 149, in get_response
    response = self.process_exception_by_middleware(e, request)
  File "/Library/Frameworks/Python.framework/Versions/3.4/lib/python3.4/site-packages/django/core/handlers/base.py", line 147, in get_response
    response = wrapped_callback(request, *callback_args, **callback_kwargs)
  File "/Library/Frameworks/Python.framework/Versions/3.4/lib/python3.4/site-packages/django/contrib/auth/decorators.py", line 22, in _wrapped_view
    if test_func(request.user):
  File "/Library/Frameworks/Python.framework/Versions/3.4/lib/python3.4/site-packages/django/contrib/auth/decorators.py", line 46, in <lambda>
    lambda u: u.is_authenticated(),
  File "/Library/Frameworks/Python.framework/Versions/3.4/lib/python3.4/site-packages/django/utils/functional.py", line 204, in inner
    self._setup()
  File "/Library/Frameworks/Python.framework/Versions/3.4/lib/python3.4/site-packages/django/utils/functional.py", line 340, in _setup
    self._wrapped = self._setupfunc()
  File "/Library/Frameworks/Python.framework/Versions/3.4/lib/python3.4/site-packages/django/contrib/auth/middleware.py", line 22, in <lambda>
    request.user = SimpleLazyObject(lambda: get_user(request))
  File "/Library/Frameworks/Python.framework/Versions/3.4/lib/python3.4/site-packages/django/contrib/auth/middleware.py", line 10, in get_user
    request._cached_user = auth.get_user(request)
  File "/Library/Frameworks/Python.framework/Versions/3.4/lib/python3.4/site-packages/django/contrib/auth/__init__.py", line 167, in get_user
    user_id = _get_user_session_key(request)
  File "/Library/Frameworks/Python.framework/Versions/3.4/lib/python3.4/site-packages/django/contrib/auth/__init__.py", line 59, in _get_user_session_key
    return get_user_model()._meta.pk.to_python(request.session[SESSION_KEY])
  File "/Library/Frameworks/Python.framework/Versions/3.4/lib/python3.4/site-packages/django/contrib/sessions/backends/base.py", line 48, in __getitem__
    return self._session[key]
  File "/Library/Frameworks/Python.framework/Versions/3.4/lib/python3.4/site-packages/django/contrib/sessions/backends/base.py", line 198, in _get_session
    self._session_cache = self.load()
  File "/Library/Frameworks/Python.framework/Versions/3.4/lib/python3.4/site-packages/django/contrib/sessions/backends/db.py", line 33, in load
    expire_date__gt=timezone.now()
  File "/Library/Frameworks/Python.framework/Versions/3.4/lib/python3.4/site-packages/django/db/models/manager.py", line 122, in manager_method
    return getattr(self.get_queryset(), name)(*args, **kwargs)
  File "/Library/Frameworks/Python.framework/Versions/3.4/lib/python3.4/site-packages/django/db/models/query.py", line 381, in get
    num = len(clone)
  File "/Library/Frameworks/Python.framework/Versions/3.4/lib/python3.4/site-packages/django/db/models/query.py", line 240, in __len__
    self._fetch_all()
  File "/Library/Frameworks/Python.framework/Versions/3.4/lib/python3.4/site-packages/django/db/models/query.py", line 1074, in _fetch_all
    self._result_cache = list(self.iterator())
  File "/Library/Frameworks/Python.framework/Versions/3.4/lib/python3.4/site-packages/django/db/models/query.py", line 52, in __iter__
    results = compiler.execute_sql()
  File "/Library/Frameworks/Python.framework/Versions/3.4/lib/python3.4/site-packages/cachalot/monkey_patch.py", line 29, in inner
    out = original(compiler, *args, **kwargs)
  File "/Library/Frameworks/Python.framework/Versions/3.4/lib/python3.4/site-packages/cachalot/monkey_patch.py", line 84, in inner
    cache_key, table_cache_keys)
  File "/Library/Frameworks/Python.framework/Versions/3.4/lib/python3.4/site-packages/cachalot/monkey_patch.py", line 40, in _get_result_or_execute_query
    data = cache.get_many(table_cache_keys + [cache_key])
  File "/Library/Frameworks/Python.framework/Versions/3.4/lib/python3.4/site-packages/django/core/cache/backends/memcached.py", line 93, in get_many
    ret = self._cache.get_multi(new_keys)
  File "/Library/Frameworks/Python.framework/Versions/3.4/lib/python3.4/site-packages/memcache.py", line 1156, in get_multi
    keys, key_prefix)
  File "/Library/Frameworks/Python.framework/Versions/3.4/lib/python3.4/site-packages/memcache.py", line 784, in _map_and_prefix_keys
    server, key = self._get_server(key_prefix + key)
  File "/Library/Frameworks/Python.framework/Versions/3.4/lib/python3.4/site-packages/memcache.py", line 413, in _get_server
    serverhash = serverHashFunction(str(serverhash) + str(i))
  File "/Library/Frameworks/Python.framework/Versions/3.4/lib/python3.4/site-packages/memcache.py", line 65, in cmemcache_hash
    (((binascii.crc32(key) & 0xffffffff)
TypeError: 'str' does not support the buffer interface
2016-01-16 13:52:54,257 ERROR django.request Internal Server Error: /favicon.ico
Traceback (most recent call last):
  File "/Library/Frameworks/Python.framework/Versions/3.4/lib/python3.4/site-packages/django/contrib/sessions/backends/base.py", line 193, in _get_session
    return self._session_cache
AttributeError: 'SessionStore' object has no attribute '_session_cache'

During handling of the above exception, another exception occurred:

Traceback (most recent call last):
  File "/Library/Frameworks/Python.framework/Versions/3.4/lib/python3.4/site-packages/django/core/handlers/base.py", line 149, in get_response
    response = self.process_exception_by_middleware(e, request)
  File "/Library/Frameworks/Python.framework/Versions/3.4/lib/python3.4/site-packages/django/core/handlers/base.py", line 147, in get_response
    response = wrapped_callback(request, *callback_args, **callback_kwargs)
  File "/Library/Frameworks/Python.framework/Versions/3.4/lib/python3.4/site-packages/django/contrib/auth/decorators.py", line 22, in _wrapped_view
    if test_func(request.user):
  File "/Library/Frameworks/Python.framework/Versions/3.4/lib/python3.4/site-packages/django/contrib/auth/decorators.py", line 46, in <lambda>
    lambda u: u.is_authenticated(),
  File "/Library/Frameworks/Python.framework/Versions/3.4/lib/python3.4/site-packages/django/utils/functional.py", line 204, in inner
    self._setup()
  File "/Library/Frameworks/Python.framework/Versions/3.4/lib/python3.4/site-packages/django/utils/functional.py", line 340, in _setup
    self._wrapped = self._setupfunc()
  File "/Library/Frameworks/Python.framework/Versions/3.4/lib/python3.4/site-packages/django/contrib/auth/middleware.py", line 22, in <lambda>
    request.user = SimpleLazyObject(lambda: get_user(request))
  File "/Library/Frameworks/Python.framework/Versions/3.4/lib/python3.4/site-packages/django/contrib/auth/middleware.py", line 10, in get_user
    request._cached_user = auth.get_user(request)
  File "/Library/Frameworks/Python.framework/Versions/3.4/lib/python3.4/site-packages/django/contrib/auth/__init__.py", line 167, in get_user
    user_id = _get_user_session_key(request)
  File "/Library/Frameworks/Python.framework/Versions/3.4/lib/python3.4/site-packages/django/contrib/auth/__init__.py", line 59, in _get_user_session_key
    return get_user_model()._meta.pk.to_python(request.session[SESSION_KEY])
  File "/Library/Frameworks/Python.framework/Versions/3.4/lib/python3.4/site-packages/django/contrib/sessions/backends/base.py", line 48, in __getitem__
    return self._session[key]
  File "/Library/Frameworks/Python.framework/Versions/3.4/lib/python3.4/site-packages/django/contrib/sessions/backends/base.py", line 198, in _get_session
    self._session_cache = self.load()
  File "/Library/Frameworks/Python.framework/Versions/3.4/lib/python3.4/site-packages/django/contrib/sessions/backends/db.py", line 33, in load
    expire_date__gt=timezone.now()
  File "/Library/Frameworks/Python.framework/Versions/3.4/lib/python3.4/site-packages/django/db/models/manager.py", line 122, in manager_method
    return getattr(self.get_queryset(), name)(*args, **kwargs)
  File "/Library/Frameworks/Python.framework/Versions/3.4/lib/python3.4/site-packages/django/db/models/query.py", line 381, in get
    num = len(clone)
  File "/Library/Frameworks/Python.framework/Versions/3.4/lib/python3.4/site-packages/django/db/models/query.py", line 240, in __len__
    self._fetch_all()
  File "/Library/Frameworks/Python.framework/Versions/3.4/lib/python3.4/site-packages/django/db/models/query.py", line 1074, in _fetch_all
    self._result_cache = list(self.iterator())
  File "/Library/Frameworks/Python.framework/Versions/3.4/lib/python3.4/site-packages/django/db/models/query.py", line 52, in __iter__
    results = compiler.execute_sql()
  File "/Library/Frameworks/Python.framework/Versions/3.4/lib/python3.4/site-packages/cachalot/monkey_patch.py", line 29, in inner
    out = original(compiler, *args, **kwargs)
  File "/Library/Frameworks/Python.framework/Versions/3.4/lib/python3.4/site-packages/cachalot/monkey_patch.py", line 84, in inner
    cache_key, table_cache_keys)
  File "/Library/Frameworks/Python.framework/Versions/3.4/lib/python3.4/site-packages/cachalot/monkey_patch.py", line 40, in _get_result_or_execute_query
    data = cache.get_many(table_cache_keys + [cache_key])
  File "/Library/Frameworks/Python.framework/Versions/3.4/lib/python3.4/site-packages/django/core/cache/backends/memcached.py", line 93, in get_many
    ret = self._cache.get_multi(new_keys)
  File "/Library/Frameworks/Python.framework/Versions/3.4/lib/python3.4/site-packages/memcache.py", line 1156, in get_multi
    keys, key_prefix)
  File "/Library/Frameworks/Python.framework/Versions/3.4/lib/python3.4/site-packages/memcache.py", line 784, in _map_and_prefix_keys
    server, key = self._get_server(key_prefix + key)
  File "/Library/Frameworks/Python.framework/Versions/3.4/lib/python3.4/site-packages/memcache.py", line 413, in _get_server
    serverhash = serverHashFunction(str(serverhash) + str(i))
  File "/Library/Frameworks/Python.framework/Versions/3.4/lib/python3.4/site-packages/memcache.py", line 65, in cmemcache_hash
    (((binascii.crc32(key) & 0xffffffff)
TypeError: 'str' does not support the buffer interface
2016-01-16 13:53:09,886 ERROR django.request Internal Server Error: /
Traceback (most recent call last):
  File "/Library/Frameworks/Python.framework/Versions/3.4/lib/python3.4/site-packages/django/contrib/sessions/backends/base.py", line 193, in _get_session
    return self._session_cache
AttributeError: 'SessionStore' object has no attribute '_session_cache'

During handling of the above exception, another exception occurred:

Traceback (most recent call last):
  File "/Library/Frameworks/Python.framework/Versions/3.4/lib/python3.4/site-packages/django/core/handlers/base.py", line 149, in get_response
    response = self.process_exception_by_middleware(e, request)
  File "/Library/Frameworks/Python.framework/Versions/3.4/lib/python3.4/site-packages/django/core/handlers/base.py", line 147, in get_response
    response = wrapped_callback(request, *callback_args, **callback_kwargs)
  File "/Library/Frameworks/Python.framework/Versions/3.4/lib/python3.4/site-packages/django/contrib/auth/decorators.py", line 22, in _wrapped_view
    if test_func(request.user):
  File "/Library/Frameworks/Python.framework/Versions/3.4/lib/python3.4/site-packages/django/contrib/auth/decorators.py", line 46, in <lambda>
    lambda u: u.is_authenticated(),
  File "/Library/Frameworks/Python.framework/Versions/3.4/lib/python3.4/site-packages/django/utils/functional.py", line 204, in inner
    self._setup()
  File "/Library/Frameworks/Python.framework/Versions/3.4/lib/python3.4/site-packages/django/utils/functional.py", line 340, in _setup
    self._wrapped = self._setupfunc()
  File "/Library/Frameworks/Python.framework/Versions/3.4/lib/python3.4/site-packages/django/contrib/auth/middleware.py", line 22, in <lambda>
    request.user = SimpleLazyObject(lambda: get_user(request))
  File "/Library/Frameworks/Python.framework/Versions/3.4/lib/python3.4/site-packages/django/contrib/auth/middleware.py", line 10, in get_user
    request._cached_user = auth.get_user(request)
  File "/Library/Frameworks/Python.framework/Versions/3.4/lib/python3.4/site-packages/django/contrib/auth/__init__.py", line 167, in get_user
    user_id = _get_user_session_key(request)
  File "/Library/Frameworks/Python.framework/Versions/3.4/lib/python3.4/site-packages/django/contrib/auth/__init__.py", line 59, in _get_user_session_key
    return get_user_model()._meta.pk.to_python(request.session[SESSION_KEY])
  File "/Library/Frameworks/Python.framework/Versions/3.4/lib/python3.4/site-packages/django/contrib/sessions/backends/base.py", line 48, in __getitem__
    return self._session[key]
  File "/Library/Frameworks/Python.framework/Versions/3.4/lib/python3.4/site-packages/django/contrib/sessions/backends/base.py", line 198, in _get_session
    self._session_cache = self.load()
  File "/Library/Frameworks/Python.framework/Versions/3.4/lib/python3.4/site-packages/django/contrib/sessions/backends/db.py", line 33, in load
    expire_date__gt=timezone.now()
  File "/Library/Frameworks/Python.framework/Versions/3.4/lib/python3.4/site-packages/django/db/models/manager.py", line 122, in manager_method
    return getattr(self.get_queryset(), name)(*args, **kwargs)
  File "/Library/Frameworks/Python.framework/Versions/3.4/lib/python3.4/site-packages/django/db/models/query.py", line 381, in get
    num = len(clone)
  File "/Library/Frameworks/Python.framework/Versions/3.4/lib/python3.4/site-packages/django/db/models/query.py", line 240, in __len__
    self._fetch_all()
  File "/Library/Frameworks/Python.framework/Versions/3.4/lib/python3.4/site-packages/django/db/models/query.py", line 1074, in _fetch_all
    self._result_cache = list(self.iterator())
  File "/Library/Frameworks/Python.framework/Versions/3.4/lib/python3.4/site-packages/django/db/models/query.py", line 52, in __iter__
    results = compiler.execute_sql()
  File "/Library/Frameworks/Python.framework/Versions/3.4/lib/python3.4/site-packages/cachalot/monkey_patch.py", line 29, in inner
    out = original(compiler, *args, **kwargs)
  File "/Library/Frameworks/Python.framework/Versions/3.4/lib/python3.4/site-packages/cachalot/monkey_patch.py", line 84, in inner
    cache_key, table_cache_keys)
  File "/Library/Frameworks/Python.framework/Versions/3.4/lib/python3.4/site-packages/cachalot/monkey_patch.py", line 40, in _get_result_or_execute_query
    data = cache.get_many(table_cache_keys + [cache_key])
  File "/Library/Frameworks/Python.framework/Versions/3.4/lib/python3.4/site-packages/django/core/cache/backends/memcached.py", line 93, in get_many
    ret = self._cache.get_multi(new_keys)
  File "/Library/Frameworks/Python.framework/Versions/3.4/lib/python3.4/site-packages/memcache.py", line 1156, in get_multi
    keys, key_prefix)
  File "/Library/Frameworks/Python.framework/Versions/3.4/lib/python3.4/site-packages/memcache.py", line 784, in _map_and_prefix_keys
    server, key = self._get_server(key_prefix + key)
  File "/Library/Frameworks/Python.framework/Versions/3.4/lib/python3.4/site-packages/memcache.py", line 413, in _get_server
    serverhash = serverHashFunction(str(serverhash) + str(i))
  File "/Library/Frameworks/Python.framework/Versions/3.4/lib/python3.4/site-packages/memcache.py", line 65, in cmemcache_hash
    (((binascii.crc32(key) & 0xffffffff)
TypeError: 'str' does not support the buffer interface
2016-01-16 13:53:10,368 ERROR django.request Internal Server Error: /favicon.ico
Traceback (most recent call last):
  File "/Library/Frameworks/Python.framework/Versions/3.4/lib/python3.4/site-packages/django/contrib/sessions/backends/base.py", line 193, in _get_session
    return self._session_cache
AttributeError: 'SessionStore' object has no attribute '_session_cache'

During handling of the above exception, another exception occurred:

Traceback (most recent call last):
  File "/Library/Frameworks/Python.framework/Versions/3.4/lib/python3.4/site-packages/django/core/handlers/base.py", line 149, in get_response
    response = self.process_exception_by_middleware(e, request)
  File "/Library/Frameworks/Python.framework/Versions/3.4/lib/python3.4/site-packages/django/core/handlers/base.py", line 147, in get_response
    response = wrapped_callback(request, *callback_args, **callback_kwargs)
  File "/Library/Frameworks/Python.framework/Versions/3.4/lib/python3.4/site-packages/django/contrib/auth/decorators.py", line 22, in _wrapped_view
    if test_func(request.user):
  File "/Library/Frameworks/Python.framework/Versions/3.4/lib/python3.4/site-packages/django/contrib/auth/decorators.py", line 46, in <lambda>
    lambda u: u.is_authenticated(),
  File "/Library/Frameworks/Python.framework/Versions/3.4/lib/python3.4/site-packages/django/utils/functional.py", line 204, in inner
    self._setup()
  File "/Library/Frameworks/Python.framework/Versions/3.4/lib/python3.4/site-packages/django/utils/functional.py", line 340, in _setup
    self._wrapped = self._setupfunc()
  File "/Library/Frameworks/Python.framework/Versions/3.4/lib/python3.4/site-packages/django/contrib/auth/middleware.py", line 22, in <lambda>
    request.user = SimpleLazyObject(lambda: get_user(request))
  File "/Library/Frameworks/Python.framework/Versions/3.4/lib/python3.4/site-packages/django/contrib/auth/middleware.py", line 10, in get_user
    request._cached_user = auth.get_user(request)
  File "/Library/Frameworks/Python.framework/Versions/3.4/lib/python3.4/site-packages/django/contrib/auth/__init__.py", line 167, in get_user
    user_id = _get_user_session_key(request)
  File "/Library/Frameworks/Python.framework/Versions/3.4/lib/python3.4/site-packages/django/contrib/auth/__init__.py", line 59, in _get_user_session_key
    return get_user_model()._meta.pk.to_python(request.session[SESSION_KEY])
  File "/Library/Frameworks/Python.framework/Versions/3.4/lib/python3.4/site-packages/django/contrib/sessions/backends/base.py", line 48, in __getitem__
    return self._session[key]
  File "/Library/Frameworks/Python.framework/Versions/3.4/lib/python3.4/site-packages/django/contrib/sessions/backends/base.py", line 198, in _get_session
    self._session_cache = self.load()
  File "/Library/Frameworks/Python.framework/Versions/3.4/lib/python3.4/site-packages/django/contrib/sessions/backends/db.py", line 33, in load
    expire_date__gt=timezone.now()
  File "/Library/Frameworks/Python.framework/Versions/3.4/lib/python3.4/site-packages/django/db/models/manager.py", line 122, in manager_method
    return getattr(self.get_queryset(), name)(*args, **kwargs)
  File "/Library/Frameworks/Python.framework/Versions/3.4/lib/python3.4/site-packages/django/db/models/query.py", line 381, in get
    num = len(clone)
  File "/Library/Frameworks/Python.framework/Versions/3.4/lib/python3.4/site-packages/django/db/models/query.py", line 240, in __len__
    self._fetch_all()
  File "/Library/Frameworks/Python.framework/Versions/3.4/lib/python3.4/site-packages/django/db/models/query.py", line 1074, in _fetch_all
    self._result_cache = list(self.iterator())
  File "/Library/Frameworks/Python.framework/Versions/3.4/lib/python3.4/site-packages/django/db/models/query.py", line 52, in __iter__
    results = compiler.execute_sql()
  File "/Library/Frameworks/Python.framework/Versions/3.4/lib/python3.4/site-packages/cachalot/monkey_patch.py", line 29, in inner
    out = original(compiler, *args, **kwargs)
  File "/Library/Frameworks/Python.framework/Versions/3.4/lib/python3.4/site-packages/cachalot/monkey_patch.py", line 84, in inner
    cache_key, table_cache_keys)
  File "/Library/Frameworks/Python.framework/Versions/3.4/lib/python3.4/site-packages/cachalot/monkey_patch.py", line 40, in _get_result_or_execute_query
    data = cache.get_many(table_cache_keys + [cache_key])
  File "/Library/Frameworks/Python.framework/Versions/3.4/lib/python3.4/site-packages/django/core/cache/backends/memcached.py", line 93, in get_many
    ret = self._cache.get_multi(new_keys)
  File "/Library/Frameworks/Python.framework/Versions/3.4/lib/python3.4/site-packages/memcache.py", line 1156, in get_multi
    keys, key_prefix)
  File "/Library/Frameworks/Python.framework/Versions/3.4/lib/python3.4/site-packages/memcache.py", line 784, in _map_and_prefix_keys
    server, key = self._get_server(key_prefix + key)
  File "/Library/Frameworks/Python.framework/Versions/3.4/lib/python3.4/site-packages/memcache.py", line 413, in _get_server
    serverhash = serverHashFunction(str(serverhash) + str(i))
  File "/Library/Frameworks/Python.framework/Versions/3.4/lib/python3.4/site-packages/memcache.py", line 65, in cmemcache_hash
    (((binascii.crc32(key) & 0xffffffff)
TypeError: 'str' does not support the buffer interface
2016-01-16 13:53:17,875 ERROR django.request Internal Server Error: /
Traceback (most recent call last):
  File "/Library/Frameworks/Python.framework/Versions/3.4/lib/python3.4/site-packages/django/contrib/sessions/backends/base.py", line 193, in _get_session
    return self._session_cache
AttributeError: 'SessionStore' object has no attribute '_session_cache'

During handling of the above exception, another exception occurred:

Traceback (most recent call last):
  File "/Library/Frameworks/Python.framework/Versions/3.4/lib/python3.4/site-packages/django/core/handlers/base.py", line 149, in get_response
    response = self.process_exception_by_middleware(e, request)
  File "/Library/Frameworks/Python.framework/Versions/3.4/lib/python3.4/site-packages/django/core/handlers/base.py", line 147, in get_response
    response = wrapped_callback(request, *callback_args, **callback_kwargs)
  File "/Library/Frameworks/Python.framework/Versions/3.4/lib/python3.4/site-packages/django/contrib/auth/decorators.py", line 22, in _wrapped_view
    if test_func(request.user):
  File "/Library/Frameworks/Python.framework/Versions/3.4/lib/python3.4/site-packages/django/contrib/auth/decorators.py", line 46, in <lambda>
    lambda u: u.is_authenticated(),
  File "/Library/Frameworks/Python.framework/Versions/3.4/lib/python3.4/site-packages/django/utils/functional.py", line 204, in inner
    self._setup()
  File "/Library/Frameworks/Python.framework/Versions/3.4/lib/python3.4/site-packages/django/utils/functional.py", line 340, in _setup
    self._wrapped = self._setupfunc()
  File "/Library/Frameworks/Python.framework/Versions/3.4/lib/python3.4/site-packages/django/contrib/auth/middleware.py", line 22, in <lambda>
    request.user = SimpleLazyObject(lambda: get_user(request))
  File "/Library/Frameworks/Python.framework/Versions/3.4/lib/python3.4/site-packages/django/contrib/auth/middleware.py", line 10, in get_user
    request._cached_user = auth.get_user(request)
  File "/Library/Frameworks/Python.framework/Versions/3.4/lib/python3.4/site-packages/django/contrib/auth/__init__.py", line 167, in get_user
    user_id = _get_user_session_key(request)
  File "/Library/Frameworks/Python.framework/Versions/3.4/lib/python3.4/site-packages/django/contrib/auth/__init__.py", line 59, in _get_user_session_key
    return get_user_model()._meta.pk.to_python(request.session[SESSION_KEY])
  File "/Library/Frameworks/Python.framework/Versions/3.4/lib/python3.4/site-packages/django/contrib/sessions/backends/base.py", line 48, in __getitem__
    return self._session[key]
  File "/Library/Frameworks/Python.framework/Versions/3.4/lib/python3.4/site-packages/django/contrib/sessions/backends/base.py", line 198, in _get_session
    self._session_cache = self.load()
  File "/Library/Frameworks/Python.framework/Versions/3.4/lib/python3.4/site-packages/django/contrib/sessions/backends/db.py", line 33, in load
    expire_date__gt=timezone.now()
  File "/Library/Frameworks/Python.framework/Versions/3.4/lib/python3.4/site-packages/django/db/models/manager.py", line 122, in manager_method
    return getattr(self.get_queryset(), name)(*args, **kwargs)
  File "/Library/Frameworks/Python.framework/Versions/3.4/lib/python3.4/site-packages/django/db/models/query.py", line 381, in get
    num = len(clone)
  File "/Library/Frameworks/Python.framework/Versions/3.4/lib/python3.4/site-packages/django/db/models/query.py", line 240, in __len__
    self._fetch_all()
  File "/Library/Frameworks/Python.framework/Versions/3.4/lib/python3.4/site-packages/django/db/models/query.py", line 1074, in _fetch_all
    self._result_cache = list(self.iterator())
  File "/Library/Frameworks/Python.framework/Versions/3.4/lib/python3.4/site-packages/django/db/models/query.py", line 52, in __iter__
    results = compiler.execute_sql()
  File "/Library/Frameworks/Python.framework/Versions/3.4/lib/python3.4/site-packages/cachalot/monkey_patch.py", line 29, in inner
    out = original(compiler, *args, **kwargs)
  File "/Library/Frameworks/Python.framework/Versions/3.4/lib/python3.4/site-packages/cachalot/monkey_patch.py", line 84, in inner
    cache_key, table_cache_keys)
  File "/Library/Frameworks/Python.framework/Versions/3.4/lib/python3.4/site-packages/cachalot/monkey_patch.py", line 40, in _get_result_or_execute_query
    data = cache.get_many(table_cache_keys + [cache_key])
  File "/Library/Frameworks/Python.framework/Versions/3.4/lib/python3.4/site-packages/django/core/cache/backends/memcached.py", line 93, in get_many
    ret = self._cache.get_multi(new_keys)
  File "/Library/Frameworks/Python.framework/Versions/3.4/lib/python3.4/site-packages/memcache.py", line 1156, in get_multi
    keys, key_prefix)
  File "/Library/Frameworks/Python.framework/Versions/3.4/lib/python3.4/site-packages/memcache.py", line 784, in _map_and_prefix_keys
    server, key = self._get_server(key_prefix + key)
  File "/Library/Frameworks/Python.framework/Versions/3.4/lib/python3.4/site-packages/memcache.py", line 413, in _get_server
    serverhash = serverHashFunction(str(serverhash) + str(i))
  File "/Library/Frameworks/Python.framework/Versions/3.4/lib/python3.4/site-packages/memcache.py", line 65, in cmemcache_hash
    (((binascii.crc32(key) & 0xffffffff)
TypeError: 'str' does not support the buffer interface
2016-01-16 13:53:18,406 ERROR django.request Internal Server Error: /favicon.ico
Traceback (most recent call last):
  File "/Library/Frameworks/Python.framework/Versions/3.4/lib/python3.4/site-packages/django/contrib/sessions/backends/base.py", line 193, in _get_session
    return self._session_cache
AttributeError: 'SessionStore' object has no attribute '_session_cache'

During handling of the above exception, another exception occurred:

Traceback (most recent call last):
  File "/Library/Frameworks/Python.framework/Versions/3.4/lib/python3.4/site-packages/django/core/handlers/base.py", line 149, in get_response
    response = self.process_exception_by_middleware(e, request)
  File "/Library/Frameworks/Python.framework/Versions/3.4/lib/python3.4/site-packages/django/core/handlers/base.py", line 147, in get_response
    response = wrapped_callback(request, *callback_args, **callback_kwargs)
  File "/Library/Frameworks/Python.framework/Versions/3.4/lib/python3.4/site-packages/django/contrib/auth/decorators.py", line 22, in _wrapped_view
    if test_func(request.user):
  File "/Library/Frameworks/Python.framework/Versions/3.4/lib/python3.4/site-packages/django/contrib/auth/decorators.py", line 46, in <lambda>
    lambda u: u.is_authenticated(),
  File "/Library/Frameworks/Python.framework/Versions/3.4/lib/python3.4/site-packages/django/utils/functional.py", line 204, in inner
    self._setup()
  File "/Library/Frameworks/Python.framework/Versions/3.4/lib/python3.4/site-packages/django/utils/functional.py", line 340, in _setup
    self._wrapped = self._setupfunc()
  File "/Library/Frameworks/Python.framework/Versions/3.4/lib/python3.4/site-packages/django/contrib/auth/middleware.py", line 22, in <lambda>
    request.user = SimpleLazyObject(lambda: get_user(request))
  File "/Library/Frameworks/Python.framework/Versions/3.4/lib/python3.4/site-packages/django/contrib/auth/middleware.py", line 10, in get_user
    request._cached_user = auth.get_user(request)
  File "/Library/Frameworks/Python.framework/Versions/3.4/lib/python3.4/site-packages/django/contrib/auth/__init__.py", line 167, in get_user
    user_id = _get_user_session_key(request)
  File "/Library/Frameworks/Python.framework/Versions/3.4/lib/python3.4/site-packages/django/contrib/auth/__init__.py", line 59, in _get_user_session_key
    return get_user_model()._meta.pk.to_python(request.session[SESSION_KEY])
  File "/Library/Frameworks/Python.framework/Versions/3.4/lib/python3.4/site-packages/django/contrib/sessions/backends/base.py", line 48, in __getitem__
    return self._session[key]
  File "/Library/Frameworks/Python.framework/Versions/3.4/lib/python3.4/site-packages/django/contrib/sessions/backends/base.py", line 198, in _get_session
    self._session_cache = self.load()
  File "/Library/Frameworks/Python.framework/Versions/3.4/lib/python3.4/site-packages/django/contrib/sessions/backends/db.py", line 33, in load
    expire_date__gt=timezone.now()
  File "/Library/Frameworks/Python.framework/Versions/3.4/lib/python3.4/site-packages/django/db/models/manager.py", line 122, in manager_method
    return getattr(self.get_queryset(), name)(*args, **kwargs)
  File "/Library/Frameworks/Python.framework/Versions/3.4/lib/python3.4/site-packages/django/db/models/query.py", line 381, in get
    num = len(clone)
  File "/Library/Frameworks/Python.framework/Versions/3.4/lib/python3.4/site-packages/django/db/models/query.py", line 240, in __len__
    self._fetch_all()
  File "/Library/Frameworks/Python.framework/Versions/3.4/lib/python3.4/site-packages/django/db/models/query.py", line 1074, in _fetch_all
    self._result_cache = list(self.iterator())
  File "/Library/Frameworks/Python.framework/Versions/3.4/lib/python3.4/site-packages/django/db/models/query.py", line 52, in __iter__
    results = compiler.execute_sql()
  File "/Library/Frameworks/Python.framework/Versions/3.4/lib/python3.4/site-packages/cachalot/monkey_patch.py", line 29, in inner
    out = original(compiler, *args, **kwargs)
  File "/Library/Frameworks/Python.framework/Versions/3.4/lib/python3.4/site-packages/cachalot/monkey_patch.py", line 84, in inner
    cache_key, table_cache_keys)
  File "/Library/Frameworks/Python.framework/Versions/3.4/lib/python3.4/site-packages/cachalot/monkey_patch.py", line 40, in _get_result_or_execute_query
    data = cache.get_many(table_cache_keys + [cache_key])
  File "/Library/Frameworks/Python.framework/Versions/3.4/lib/python3.4/site-packages/django/core/cache/backends/memcached.py", line 93, in get_many
    ret = self._cache.get_multi(new_keys)
  File "/Library/Frameworks/Python.framework/Versions/3.4/lib/python3.4/site-packages/memcache.py", line 1156, in get_multi
    keys, key_prefix)
  File "/Library/Frameworks/Python.framework/Versions/3.4/lib/python3.4/site-packages/memcache.py", line 784, in _map_and_prefix_keys
    server, key = self._get_server(key_prefix + key)
  File "/Library/Frameworks/Python.framework/Versions/3.4/lib/python3.4/site-packages/memcache.py", line 413, in _get_server
    serverhash = serverHashFunction(str(serverhash) + str(i))
  File "/Library/Frameworks/Python.framework/Versions/3.4/lib/python3.4/site-packages/memcache.py", line 65, in cmemcache_hash
    (((binascii.crc32(key) & 0xffffffff)
TypeError: 'str' does not support the buffer interface
2016-01-16 13:53:44,968 INFO Savie.savie_views.default Redirecting from '/' to default page
2016-01-16 13:54:03,271 INFO Savie.savie_views.default Redirecting from '/favicon.ico' to default page
2016-01-16 13:54:10,650 INFO Savie.savie_views.default Redirecting from '/favicon.ico' to default page
2016-01-16 13:55:17,024 INFO Savie.savie_views.default Redirecting from '/favicon.ico' to default page
2016-01-16 13:56:04,658 ERROR django.request Internal Server Error: /accounts/bank/overview
Traceback (most recent call last):
  File "/Library/Frameworks/Python.framework/Versions/3.4/lib/python3.4/site-packages/django/core/handlers/base.py", line 123, in get_response
    response = middleware_method(request)
  File "/Library/Frameworks/Python.framework/Versions/3.4/lib/python3.4/site-packages/django/middleware/common.py", line 55, in process_request
    host = request.get_host()
  File "/Library/Frameworks/Python.framework/Versions/3.4/lib/python3.4/site-packages/django/http/request.py", line 100, in get_host
    if domain and validate_host(domain, settings.ALLOWED_HOSTS):
  File "/Library/Frameworks/Python.framework/Versions/3.4/lib/python3.4/site-packages/django/http/request.py", line 550, in validate_host
    if pattern == '*' or is_same_domain(host, pattern):
  File "/Library/Frameworks/Python.framework/Versions/3.4/lib/python3.4/site-packages/django/utils/http.py", line 268, in is_same_domain
    pattern = pattern.lower()
AttributeError: 'dict' object has no attribute 'lower'
2016-01-16 13:56:04,931 ERROR django.request Internal Server Error: /favicon.ico
Traceback (most recent call last):
  File "/Library/Frameworks/Python.framework/Versions/3.4/lib/python3.4/site-packages/django/core/handlers/base.py", line 123, in get_response
    response = middleware_method(request)
  File "/Library/Frameworks/Python.framework/Versions/3.4/lib/python3.4/site-packages/django/middleware/common.py", line 55, in process_request
    host = request.get_host()
  File "/Library/Frameworks/Python.framework/Versions/3.4/lib/python3.4/site-packages/django/http/request.py", line 100, in get_host
    if domain and validate_host(domain, settings.ALLOWED_HOSTS):
  File "/Library/Frameworks/Python.framework/Versions/3.4/lib/python3.4/site-packages/django/http/request.py", line 550, in validate_host
    if pattern == '*' or is_same_domain(host, pattern):
  File "/Library/Frameworks/Python.framework/Versions/3.4/lib/python3.4/site-packages/django/utils/http.py", line 268, in is_same_domain
    pattern = pattern.lower()
AttributeError: 'dict' object has no attribute 'lower'
2016-01-16 13:56:05,995 ERROR django.request Internal Server Error: /accounts/bank/overview
Traceback (most recent call last):
  File "/Library/Frameworks/Python.framework/Versions/3.4/lib/python3.4/site-packages/django/core/handlers/base.py", line 123, in get_response
    response = middleware_method(request)
  File "/Library/Frameworks/Python.framework/Versions/3.4/lib/python3.4/site-packages/django/middleware/common.py", line 55, in process_request
    host = request.get_host()
  File "/Library/Frameworks/Python.framework/Versions/3.4/lib/python3.4/site-packages/django/http/request.py", line 100, in get_host
    if domain and validate_host(domain, settings.ALLOWED_HOSTS):
  File "/Library/Frameworks/Python.framework/Versions/3.4/lib/python3.4/site-packages/django/http/request.py", line 550, in validate_host
    if pattern == '*' or is_same_domain(host, pattern):
  File "/Library/Frameworks/Python.framework/Versions/3.4/lib/python3.4/site-packages/django/utils/http.py", line 268, in is_same_domain
    pattern = pattern.lower()
AttributeError: 'dict' object has no attribute 'lower'
2016-01-16 13:56:06,233 ERROR django.request Internal Server Error: /favicon.ico
Traceback (most recent call last):
  File "/Library/Frameworks/Python.framework/Versions/3.4/lib/python3.4/site-packages/django/core/handlers/base.py", line 123, in get_response
    response = middleware_method(request)
  File "/Library/Frameworks/Python.framework/Versions/3.4/lib/python3.4/site-packages/django/middleware/common.py", line 55, in process_request
    host = request.get_host()
  File "/Library/Frameworks/Python.framework/Versions/3.4/lib/python3.4/site-packages/django/http/request.py", line 100, in get_host
    if domain and validate_host(domain, settings.ALLOWED_HOSTS):
  File "/Library/Frameworks/Python.framework/Versions/3.4/lib/python3.4/site-packages/django/http/request.py", line 550, in validate_host
    if pattern == '*' or is_same_domain(host, pattern):
  File "/Library/Frameworks/Python.framework/Versions/3.4/lib/python3.4/site-packages/django/utils/http.py", line 268, in is_same_domain
    pattern = pattern.lower()
AttributeError: 'dict' object has no attribute 'lower'
2016-01-16 13:56:23,154 INFO Savie.savie_views.default Redirecting from '/favicon.ico' to default page
2016-01-16 13:56:24,479 INFO Savie.savie_views.default Redirecting from '/favicon.ico' to default page
2016-01-16 13:56:26,207 INFO Savie.savie_views.default Redirecting from '/' to default page
2016-01-16 13:56:26,384 INFO Savie.savie_views.default Redirecting from '/favicon.ico' to default page
2016-01-16 13:57:21,937 INFO Savie.savie_views.default Redirecting from '/favicon.ico' to default page
2016-01-16 13:57:23,912 INFO Savie.savie_views.default Redirecting from '/favicon.ico' to default page
2016-01-16 13:57:59,545 INFO Savie.savie_views.default Redirecting from '/favicon.ico' to default page
2016-01-16 13:58:15,867 INFO Savie.savie_views.default Redirecting from '/favicon.ico' to default page
2016-01-16 13:58:31,244 INFO Savie.savie_views.default Redirecting from '/static/CACHE/css/079118c86b71.css' to default page
2016-01-16 13:58:31,249 INFO Savie.savie_views.default Redirecting from '/static/CACHE/js/8e947b4e9d5b.js' to default page
2016-01-16 13:58:31,913 INFO Savie.savie_views.default Redirecting from '/static/images/favicon.ico' to default page
2016-01-16 13:58:43,625 INFO Savie.savie_views.default Redirecting from '/favicon.ico' to default page
2016-01-16 13:58:48,571 INFO Savie.savie_views.default Redirecting from '/static/CACHE/js/8e947b4e9d5b.js' to default page
2016-01-16 13:58:48,778 INFO Savie.savie_views.default Redirecting from '/static/CACHE/js/8e947b4e9d5b.js' to default page
2016-01-16 13:58:48,780 INFO Savie.savie_views.default Redirecting from '/static/CACHE/css/079118c86b71.css' to default page
2016-01-16 13:58:49,156 INFO Savie.savie_views.default Redirecting from '/static/images/favicon.ico' to default page
2016-01-16 13:58:56,097 INFO Savie.savie_views.default Redirecting from '/static/CACHE/js/8e947b4e9d5b.js' to default page
2016-01-16 13:58:56,098 INFO Savie.savie_views.default Redirecting from '/static/CACHE/css/079118c86b71.css' to default page
2016-01-16 13:58:56,457 INFO Savie.savie_views.default Redirecting from '/static/images/favicon.ico' to default page
2016-01-16 13:58:58,863 INFO Savie.savie_views.default Redirecting from '/static/CACHE/css/079118c86b71.css' to default page
2016-01-16 13:58:58,865 INFO Savie.savie_views.default Redirecting from '/static/CACHE/js/8e947b4e9d5b.js' to default page
2016-01-16 13:58:59,134 INFO Savie.savie_views.default Redirecting from '/static/images/favicon.ico' to default page
2016-01-16 13:59:01,335 INFO Savie.savie_views.default Redirecting from '/' to default page
2016-01-16 13:59:01,475 INFO Savie.savie_views.default Redirecting from '/static/CACHE/js/8e947b4e9d5b.js' to default page
2016-01-16 13:59:01,475 INFO Savie.savie_views.default Redirecting from '/static/CACHE/css/079118c86b71.css' to default page
2016-01-16 13:59:01,756 INFO Savie.savie_views.default Redirecting from '/static/images/favicon.ico' to default page
2016-01-16 13:59:09,752 INFO Savie.savie_views.default Redirecting from '/static/CACHE/css/079118c86b71.css' to default page
2016-01-16 13:59:09,944 INFO Savie.savie_views.default Redirecting from '/static/CACHE/css/079118c86b71.css' to default page
2016-01-16 13:59:09,952 INFO Savie.savie_views.default Redirecting from '/static/CACHE/js/8e947b4e9d5b.js' to default page
2016-01-16 13:59:10,309 INFO Savie.savie_views.default Redirecting from '/static/images/favicon.ico' to default page
2016-01-16 13:59:32,485 WARNING django.request Not Found: /static/CACHE/css/079118c86b71.css
2016-01-16 13:59:32,495 WARNING django.request Not Found: /static/CACHE/js/8e947b4e9d5b.js
2016-01-16 13:59:32,925 WARNING django.request Not Found: /static/images/favicon.ico
2016-01-16 13:59:35,535 WARNING django.request Not Found: /static/CACHE/css/079118c86b71.css
2016-01-16 13:59:35,537 WARNING django.request Not Found: /static/CACHE/js/8e947b4e9d5b.js
2016-01-16 13:59:35,997 WARNING django.request Not Found: /static/images/favicon.ico
2016-01-16 13:59:39,857 WARNING django.request Not Found: /favicon.ico
2016-01-16 13:59:44,815 WARNING django.request Not Found: /static/CACHE/js/8e947b4e9d5b.js
2016-01-16 14:00:20,648 INFO Savie.savie_views.default Redirecting from '/static/CACHE/css/079118c86b71.css' to default page
2016-01-16 14:00:20,653 INFO Savie.savie_views.default Redirecting from '/static/CACHE/js/8e947b4e9d5b.js' to default page
2016-01-16 14:00:23,852 INFO Savie.savie_views.default Redirecting from '/static/CACHE/js/8e947b4e9d5b.js' to default page
2016-01-16 14:00:23,854 INFO Savie.savie_views.default Redirecting from '/static/CACHE/css/079118c86b71.css' to default page
2016-01-16 14:00:24,815 INFO Savie.savie_views.default Redirecting from '/static/images/favicon.ico' to default page
2016-01-16 14:01:13,771 WARNING django.request Not Found: /static/CACHE/css/079118c86b71.css
2016-01-16 14:01:13,773 WARNING django.request Not Found: /static/CACHE/js/8e947b4e9d5b.js
2016-01-16 14:01:14,390 WARNING django.request Not Found: /static/images/favicon.ico
2016-01-16 14:03:26,197 WARNING django.request Not Found: /static/CACHE/css/079118c86b71.css
2016-01-16 14:03:26,200 WARNING django.request Not Found: /static/CACHE/js/8e947b4e9d5b.js
2016-01-16 14:04:21,714 WARNING django.request Not Found: /static/CACHE/js/8e947b4e9d5b.js
2016-01-16 14:04:21,719 WARNING django.request Not Found: /static/CACHE/css/079118c86b71.css
2016-01-16 14:04:29,139 WARNING django.request Not Found: /favicon.ico
2016-01-16 14:04:40,119 WARNING django.request Not Found: /static/CACHE/css/079118c86b71.css
2016-01-16 14:04:45,873 WARNING django.request Not Found: /static/CACHE/
2016-01-16 14:04:48,964 WARNING django.request Not Found: /static/
2016-01-16 14:04:51,964 WARNING django.request Not Found: /static/css/
2016-01-16 14:05:11,340 WARNING django.request Not Found: /static/CACHE/css/079118c86b71.css
2016-01-16 14:07:33,496 WARNING django.request Not Found: /static/CACHE/css/079118c86b71.css
2016-01-16 14:07:34,755 WARNING django.request Not Found: /static/CACHE/css/079118c86b71.css
2016-01-16 14:07:56,276 WARNING django.request Not Found: /static/CACHE/css/079118c86b71.css
2016-01-16 14:08:00,316 WARNING django.request Not Found: /static/CACHE/css/079118c86b71.css
2016-01-16 14:08:30,635 WARNING django.request Not Found: /static/CACHE/css/079118c86b71.css
2016-01-16 14:08:32,007 WARNING django.request Not Found: /static/CACHE/css/079118c86b71.css
2016-01-16 14:09:36,291 WARNING django.request Not Found: /
2016-01-16 14:09:45,499 WARNING django.request Not Found: /static/CACHE/css/079118c86b71.css
2016-01-16 14:09:45,555 WARNING django.request Not Found: /static/CACHE/js/8e947b4e9d5b.js
2016-01-16 14:09:55,819 WARNING django.request Not Found: /static/CACHE/css/079118c86b71.css
2016-01-16 14:09:57,115 WARNING django.request Not Found: /static/CACHE/css/079118c86b71.css
2016-01-16 14:13:41,243 INFO Savie.savie_views.default Redirecting from '/' to default page
2016-01-16 14:15:23,141 INFO Savie.savie_views.default Redirecting from '/' to default page
2016-01-16 16:02:23,184 INFO Savie.savie_views.default Redirecting from '/favicon.ico' to default page
2016-01-16 16:02:27,615 INFO Savie.savie_views.default Redirecting from '/favicon.ico' to default page
2016-01-16 16:02:30,369 INFO Savie.savie_views.default Redirecting from '/favicon.ico' to default page
2016-01-16 16:02:31,006 INFO Savie.savie_views.default Redirecting from '/favicon.ico' to default page
2016-01-16 16:02:31,781 INFO Savie.savie_views.default Redirecting from '/favicon.ico' to default page
2016-01-16 16:02:33,747 INFO Savie.savie_views.default Redirecting from '/favicon.ico' to default page
2016-01-16 16:02:51,466 INFO Savie.savie_views.default Redirecting from '/favicon.ico' to default page
2016-01-16 16:02:57,633 INFO Savie.savie_views.default Redirecting from '/favicon.ico' to default page
2016-01-16 16:53:43,623 INFO Savie.savie_views.default Redirecting from '/favicon.ico' to default page
2016-01-16 16:53:46,740 INFO Savie.savie_views.default Redirecting from '/favicon.ico' to default page
2016-01-16 16:53:58,387 INFO Savie.savie_views.default Redirecting from '/favicon.ico' to default page
2016-01-16 16:53:59,933 INFO Savie.savie_views.default Redirecting from '/favicon.ico' to default page
2016-01-16 16:54:02,051 INFO Savie.savie_views.default Redirecting from '/favicon.ico' to default page
2016-01-16 16:54:03,354 INFO Savie.savie_views.default Redirecting from '/favicon.ico' to default page
2016-01-16 16:54:04,389 INFO Savie.savie_views.default Redirecting from '/favicon.ico' to default page
2016-01-16 16:54:04,600 INFO Savie.savie_views.default Redirecting from '/favicon.ico' to default page
2016-01-16 16:54:05,003 INFO Savie.savie_views.default Redirecting from '/favicon.ico' to default page
